<svg width="95" height="97" viewBox="0 0 95 97" fill="none" xmlns="http://www.w3.org/2000/svg">
<path d="M93.4973 25.1012L74.4586 0.955051C73.9811 0.352954 73.2752 0 72.507 0H22.5121C21.7439 0 21.038 0.352954 20.5605 0.955051L1.52175 25.1012C1.16879 25.5372 0.981934 26.0771 0.981934 26.6376V94.5086C0.981934 95.8789 2.10308 97 3.47337 97H91.5249C92.8952 97 94.0164 95.8789 94.0164 94.5086V26.6376C94.0371 26.0771 93.8503 25.5372 93.4973 25.1012ZM86.7289 24.5614H50.001V4.98288H71.3028L86.7289 24.5614ZM23.7163 4.98288H45.0181V24.5614H8.29015L23.7163 4.98288ZM5.96481 92.0171V29.5443H89.0335V92.0171H5.96481Z" fill="#4FC74D"/>
<path d="M59.3231 49.6004L42.6305 66.293L35.696 59.3585C34.7202 58.3827 33.1422 58.3827 32.1664 59.3585C31.1906 60.3343 31.1906 61.9122 32.1664 62.888L40.8657 71.5873C41.3432 72.0648 41.9868 72.314 42.6305 72.314C43.2741 72.314 43.8969 72.0648 44.3952 71.5873L62.8319 53.1507C63.8077 52.1749 63.8077 50.597 62.8319 49.6211C61.8768 48.6246 60.2989 48.6246 59.3231 49.6004Z" fill="#4FC74D"/>
</svg>
